%YAML 1.1
%TAG !u! tag:unity3d.com,2011:
--- !u!114 &-7679104451236370355
MonoBehaviour:
  m_ObjectHideFlags: 3
  m_CorrespondingSourceObject: {fileID: 0}
  m_PrefabInstance: {fileID: 0}
  m_PrefabAsset: {fileID: 0}
  m_GameObject: {fileID: 0}
  m_Enabled: 1
  m_EditorHideFlags: 0
  m_Script: {fileID: 11500000, guid: 81180773991d8724ab7f2d216912b564, type: 3}
  m_Name: ChromaticAberration
  m_EditorClassIdentifier: 
  active: 1
  intensity:
    m_OverrideState: 1
    m_Value: 0.2
--- !u!114 &-6075702669829103910
MonoBehaviour:
  m_ObjectHideFlags: 3
  m_CorrespondingSourceObject: {fileID: 0}
  m_PrefabInstance: {fileID: 0}
  m_PrefabAsset: {fileID: 0}
  m_GameObject: {fileID: 0}
  m_Enabled: 1
  m_EditorHideFlags: 0
  m_Script: {fileID: 11500000, guid: 66f335fb1ffd8684294ad653bf1c7564, type: 3}
  m_Name: ColorAdjustments
  m_EditorClassIdentifier: 
  active: 1
  postExposure:
    m_OverrideState: 1
    m_Value: 1
  contrast:
    m_OverrideState: 1
    m_Value: 20
  colorFilter:
    m_OverrideState: 1
    m_Value: {r: 0.972549, g: 0.7921569, b: 0.6901961, a: 1}
  hueShift:
    m_OverrideState: 1
    m_Value: 0
  saturation:
    m_OverrideState: 1
    m_Value: 10
--- !u!114 &-4074309967168483971
MonoBehaviour:
  m_ObjectHideFlags: 3
  m_CorrespondingSourceObject: {fileID: 0}
  m_PrefabInstance: {fileID: 0}
  m_PrefabAsset: {fileID: 0}
  m_GameObject: {fileID: 0}
  m_Enabled: 1
  m_EditorHideFlags: 0
  m_Script: {fileID: 11500000, guid: 221518ef91623a7438a71fef23660601, type: 3}
  m_Name: WhiteBalance
  m_EditorClassIdentifier: 
  active: 1
  temperature:
    m_OverrideState: 1
    m_Value: 50
  tint:
    m_OverrideState: 1
    m_Value: 0
--- !u!114 &-3052772223309973935
MonoBehaviour:
  m_ObjectHideFlags: 3
  m_CorrespondingSourceObject: {fileID: 0}
  m_PrefabInstance: {fileID: 0}
  m_PrefabAsset: {fileID: 0}
  m_GameObject: {fileID: 0}
  m_Enabled: 1
  m_EditorHideFlags: 0
  m_Script: {fileID: 11500000, guid: 97c23e3b12dc18c42a140437e53d3951, type: 3}
  m_Name: Tonemapping
  m_EditorClassIdentifier: 
  active: 1
  mode:
    m_OverrideState: 1
    m_Value: 2
--- !u!114 &-1191612367487599012
MonoBehaviour:
  m_ObjectHideFlags: 3
  m_CorrespondingSourceObject: {fileID: 0}
  m_PrefabInstance: {fileID: 0}
  m_PrefabAsset: {fileID: 0}
  m_GameObject: {fileID: 0}
  m_Enabled: 1
  m_EditorHideFlags: 0
  m_Script: {fileID: 11500000, guid: 558a8e2b6826cf840aae193990ba9f2e, type: 3}
  m_Name: ShadowsMidtonesHighlights
  m_EditorClassIdentifier: 
  active: 1
  shadows:
    m_OverrideState: 1
    m_Value: {x: 1, y: 0.998985, z: 0.98349774, w: 0.12192507}
  midtones:
    m_OverrideState: 0
    m_Value: {x: 1, y: 1, z: 1, w: 0}
  highlights:
    m_OverrideState: 0
    m_Value: {x: 1, y: 1, z: 1, w: 0}
  shadowsStart:
    m_OverrideState: 0
    m_Value: 0
  shadowsEnd:
    m_OverrideState: 0
    m_Value: 0.3
  highlightsStart:
    m_OverrideState: 0
    m_Value: 0.55
  highlightsEnd:
    m_OverrideState: 0
    m_Value: 1
--- !u!114 &11400000
MonoBehaviour:
  m_ObjectHideFlags: 0
  m_CorrespondingSourceObject: {fileID: 0}
  m_PrefabInstance: {fileID: 0}
  m_PrefabAsset: {fileID: 0}
  m_GameObject: {fileID: 0}
  m_Enabled: 1
  m_EditorHideFlags: 0
  m_Script: {fileID: 11500000, guid: d7fd9488000d3734a9e00ee676215985, type: 3}
  m_Name: Global Volume Profile
  m_EditorClassIdentifier: 
  components:
  - {fileID: -3052772223309973935}
  - {fileID: 6943028581267216825}
  - {fileID: -7679104451236370355}
  - {fileID: 7797976180829994381}
  - {fileID: -4074309967168483971}
  - {fileID: -6075702669829103910}
  - {fileID: -1191612367487599012}
--- !u!114 &6943028581267216825
MonoBehaviour:
  m_ObjectHideFlags: 3
  m_CorrespondingSourceObject: {fileID: 0}
  m_PrefabInstance: {fileID: 0}
  m_PrefabAsset: {fileID: 0}
  m_GameObject: {fileID: 0}
  m_Enabled: 1
  m_EditorHideFlags: 0
  m_Script: {fileID: 11500000, guid: 0b2db86121404754db890f4c8dfe81b2, type: 3}
  m_Name: Bloom
  m_EditorClassIdentifier: 
  active: 1
  threshold:
    m_OverrideState: 1
    m_Value: 0.9
  intensity:
    m_OverrideState: 1
    m_Value: 10
  scatter:
    m_OverrideState: 1
    m_Value: 0.7
  clamp:
    m_OverrideState: 1
    m_Value: 65472
  tint:
    m_OverrideState: 1
    m_Value: {r: 0.754717, g: 0.30188677, b: 0.30188677, a: 1}
  highQualityFiltering:
    m_OverrideState: 1
    m_Value: 0
  skipIterations:
    m_OverrideState: 1
    m_Value: 1
  dirtTexture:
    m_OverrideState: 1
    m_Value: {fileID: 0}
    dimension: 1
  dirtIntensity:
    m_OverrideState: 1
    m_Value: 0
--- !u!114 &7797976180829994381
MonoBehaviour:
  m_ObjectHideFlags: 3
  m_CorrespondingSourceObject: {fileID: 0}
  m_PrefabInstance: {fileID: 0}
  m_PrefabAsset: {fileID: 0}
  m_GameObject: {fileID: 0}
  m_Enabled: 1
  m_EditorHideFlags: 0
  m_Script: {fileID: 11500000, guid: 899c54efeace73346a0a16faa3afe726, type: 3}
  m_Name: Vignette
  m_EditorClassIdentifier: 
  active: 1
  color:
    m_OverrideState: 1
    m_Value: {r: 0, g: 0, b: 0, a: 1}
  center:
    m_OverrideState: 1
    m_Value: {x: 0.5, y: 0.5}
  intensity:
    m_OverrideState: 1
    m_Value: 0.7
  smoothness:
    m_OverrideState: 1
    m_Value: 0.4
  rounded:
    m_OverrideState: 1
    m_Value: 0
